{
    "potential-LAMMPS": {
        "key": "becquart_1", 
        "id": "2007--Becquart--Fe-C--LAMMPS--ipr1", 
        "potential": {
            "key": "becquart", 
            "id": "2007--Becquart--Fe-C"
        }, 
        "units": "metal", 
        "atom_style": "atomic", 
        "atom": [
            {
                "element": "Fe", 
                "mass": 55.845
            }, 
            {
                "element": "C", 
                "mass": 12.0107
            }
        ], 
        "pair_style": {
            "type": "eam/alloy"
        }, 
        "pair_coeff": {
            "term": [
                {
                    "file": "2007--Becquart--Fe-C--LAMMPS--ipr1.eam"
                }, 
                {
                    "symbols": "True"
                }
            ]
        }
    }
}