{
    "potential-LAMMPS": {
        "key": "Proville_1", 
        "id": "2010--Proville-Fe--LAMMPS", 
        "potential": {
            "key": "Proville", 
            "id": "2010--Proville-Fe--LAMMPS"
        }, 
        "units": "metal", 
        "atom_style": "atomic", 
        "atom": [
            {
                "element": "Fe", 
                "mass": 55.845
            }
        ], 
        "pair_style": {
            "type": "eam/fs"
        }, 
        "pair_coeff": {
            "term": [
                {
                    "file": "MCM2011_eam.fs"
                }, 
                {
                    "symbols": "True"
                }
            ]
        }
    }
}